{
    "pageNumber": 1,
    "pageSize": 10,
    "firstPage": "1",
    "lastPage": "2",
    "totalPages": 2,
    "totalRecords": 15,
    "nextPage": "2",
    "previousPage": "0",
    "data": [
        {
            "payload_id": 1,
            "patient_name": "Alex Bazin",
            "patient_id": "123 123 1234",
            "payload_received": "20221010T141114"
        },
        {
            "payload_id": 2,
            "patient_name": "Louiza Van-Der-Varintaford",
            "patient_id": "223 223 3234",
            "payload_received": "20221011T050215"
        },
        {
            "payload_id": 3,
            "patient_name": "Joe Batt",
            "patient_id": "423 323 2235",
            "payload_received": "20220526T060316"
        },
        {
            "payload_id": "333293d0-ab97-4ea1-b967-42ec62f26333",
            "patient_name": "Richard McRichardson",
            "patient_id": "623 723 8234",
            "payload_received": "20220526T070417"
        },
        {
            "payload_id": "111293d0-ab97-4ea1-b967-42ec62f26111",
            "patient_name": "Migle Van-Migleson",
            "patient_id": "023 723 6234",
            "payload_received": "20220526T080518"
        }
    ]
}