{
    "pageNumber": 1,
    "pageSize": 10,
    "totalPages": 10,
    "totalRecords": 100,
    "succeeded": true,
    "errors": null,
    "message": null,
    "data": [
        {
            "id": "678",
            "clinical_review_message": {
                "task_id": "0000-0000-0001",
                "reviewed_task_id": "cde",
                "execution_id": "001",
                "reviewed_execution_id": "abc",
                "correlation_id": "123",
                "workflow_name": "workflow 1",
                "patient_metadata": {
                    "patient_name": "Joe Batt",
                    "patient_id": "000-000-000-001",
                    "patient_sex": "M",
                    "patient_Dob": "10-10-2000",
                    "patient_age": "23"
                },
                "files": [],
                "reviewer_roles": [
                    "admin",
                    "clinician"
                ],
                "application_metadata": {
                    "application_name": "stroke model",
                    "application_version": "1.1",
                    "application_mode": "QA"
                }
            },
            "reviewed": false,
            "received": "1995-12-17T03:24:00"
        },
        {
            "id": "700",
            "clinical_review_message": {
                "task_id": "0000-0000-0002",
                "reviewed_task_id": "cde",
                "execution_id": "002",
                "reviewed_execution_id": "abc",
                "correlation_id": "125",
                "workflow_name": "workflow 2",
                "patient_metadata": {
                    "patient_name": "Alexis Bazin",
                    "patient_id": "000-000-000-002",
                    "patient_sex": "M",
                    "patient_Dob": "10-12-2000",
                    "patient_age": "72"
                },
                "files": [],
                "reviewer_roles": [
                    "admin",
                    "clinician"
                ],
                "application_metadata": {
                    "application_name": "stroke",
                    "application_version": "1.1",
                    "application_mode": "Clinical"
                }
            },
            "reviewed": false,
            "received": "2022-01-31T12:12:59"
        },
        {
            "id": "679",
            "clinical_review_message": {
                "task_id": "0000-0000-0003",
                "reviewed_task_id": "cde",
                "execution_id": "003",
                "reviewed_execution_id": "abc",
                "correlation_id": "123",
                "workflow_name": "workflow 3",
                "patient_metadata": {
                    "patient_name": "John Smith",
                    "patient_id": "000-000-000-003",
                    "patient_sex": "M",
                    "patient_Dob": "03-11-2022",
                    "patient_age": "09"
                },
                "files": [],
                "reviewer_roles": [
                    "admin",
                    "clinician"
                ],
                "application_metadata": {
                    "application_name": "Cancer model",
                    "application_version": "13.8",
                    "application_mode": "Research"
                }
            },
            "reviewed": false,
            "received": "2003-06-10T00:02:78"
        },
        {
            "id": "679",
            "clinical_review_message": {
                "task_id": "0000-0000-0003",
                "reviewed_task_id": "cde",
                "execution_id": "004",
                "reviewed_execution_id": "abc",
                "correlation_id": "123",
                "workflow_name": "workflow 3",
                "patient_metadata": {
                    "patient_name": "Susan Smith",
                    "patient_id": "000-000-000-004",
                    "patient_sex": "F",
                    "patient_Dob": "02-09-2022",
                    "patient_age": "99"
                },
                "files": [],
                "reviewer_roles": [
                    "admin",
                    "clinician"
                ],
                "application_metadata": {
                    "application_name": "Pain model",
                    "application_version": "0.9",
                    "application_mode": "QA"
                }
            },
            "reviewed": false,
            "received": "2003-06-10T00:02:44"
        },
        {
            "id": "679",
            "clinical_review_message": {
                "task_id": "0000-0000-0003",
                "reviewed_task_id": "cde",
                "execution_id": "005",
                "reviewed_execution_id": "abc",
                "correlation_id": "123",
                "workflow_name": "workflow 3",
                "patient_metadata": {
                    "patient_name": "Susan Jeffries",
                    "patient_id": "000-000-000-005",
                    "patient_sex": "F",
                    "patient_Dob": "12-12-2010",
                    "patient_age": "99"
                },
                "files": [],
                "reviewer_roles": [
                    "admin",
                    "clinician"
                ],
                "application_metadata": {
                    "application_name": "Pain model",
                    "application_version": "10",
                    "application_mode": "Clinician"
                }
            },
            "reviewed": false,
            "received": "2003-06-10T00:00:00"
        },
        {
            "id": "679",
            "clinical_review_message": {
                "task_id": "0000-0000-0003",
                "reviewed_task_id": "cde",
                "execution_id": "006",
                "reviewed_execution_id": "abc",
                "correlation_id": "123",
                "workflow_name": "workflow 3",
                "patient_metadata": {
                    "patient_name": "Mark Jeffries",
                    "patient_id": "000-000-000-007",
                    "patient_sex": "M",
                    "patient_Dob": "12-12-2010",
                    "patient_age": "45"
                },
                "files": [],
                "reviewer_roles": [
                    "admin",
                    "clinician"
                ],
                "application_metadata": {
                    "application_name": "Other model",
                    "application_version": "10.00",
                    "application_mode": "Research"
                }
            },
            "reviewed": false,
            "received": "2003-02-29T23:59:59"
        },
        {
            "id": "679",
            "clinical_review_message": {
                "task_id": "0000-0000-0003",
                "reviewed_task_id": "cde",
                "execution_id": "007",
                "reviewed_execution_id": "abc",
                "correlation_id": "123",
                "workflow_name": "workflow 3",
                "patient_metadata": {
                    "patient_name": "Mark Migleson",
                    "patient_id": "000-000-000-008",
                    "patient_sex": "M",
                    "patient_Dob": "12-12-2010",
                    "patient_age": "45"
                },
                "files": [],
                "reviewer_roles": [
                    "admin",
                    "clinician"
                ],
                "application_metadata": {
                    "application_name": "Other model",
                    "application_version": "10.00",
                    "application_mode": "Research"
                }
            },
            "reviewed": false,
            "received": "2003-02-29T23:59:59"
        }
    ]
}